0 [main] INFO org.robotframework.remoteserver.RemoteServer  - Mapped path / to library com.github.rainmanwy.robotframework.sikulilib.SikuliLibrary.
0 [main] INFO org.robotframework.remoteserver.RemoteServer  - Robot Framework remote server starting
15 [main] INFO org.eclipse.jetty.server.Server  - jetty-7.x.y-SNAPSHOT
37 [main] INFO org.eclipse.jetty.server.handler.ContextHandler  - started o.e.j.s.ServletContextHandler{/,null}
800 [main] INFO org.eclipse.jetty.server.AbstractConnector  - Started SelectChannelConnector@0.0.0.0:59538
800 [main] INFO org.robotframework.remoteserver.RemoteServer  - Robot Framework remote server started on port 59538.
